%YAML 1.1
%TAG !u! tag:unity3d.com,2011:
--- !u!221 &22100000
AnimatorOverrideController:
  m_ObjectHideFlags: 0
  m_PrefabParentObject: {fileID: 0}
  m_PrefabInternal: {fileID: 0}
  m_Name: Knight
  m_Controller: {fileID: 9100000, guid: f0b6d399bd66b4d429ceee1b216bb2e1, type: 2}
  m_Clips:
  - m_OriginalClip: {fileID: 7400000, guid: 18b26760d50b1654581283c67679f533, type: 2}
    m_OverrideClip: {fileID: 7400000, guid: 6f41770f9714efd4e8d93eaed7ac4de5, type: 2}
  - m_OriginalClip: {fileID: 7400000, guid: d5bebfcece9b57147ba8fe1b421d98ef, type: 2}
    m_OverrideClip: {fileID: 7400000, guid: b64b4a7f81d92f140b606e97cfdb4337, type: 2}
  - m_OriginalClip: {fileID: 7400000, guid: 17fb52e15641fc2428d8df888fbc2053, type: 2}
    m_OverrideClip: {fileID: 7400000, guid: 6f41770f9714efd4e8d93eaed7ac4de5, type: 2}
  - m_OriginalClip: {fileID: 7400000, guid: 6f41770f9714efd4e8d93eaed7ac4de5, type: 2}
    m_OverrideClip: {fileID: 7400000, guid: 6f41770f9714efd4e8d93eaed7ac4de5, type: 2}
  - m_OriginalClip: {fileID: 7400000, guid: 64fd632d9ba4e3b4e8a04d58e1166d28, type: 2}
    m_OverrideClip: {fileID: 7400000, guid: 64fd632d9ba4e3b4e8a04d58e1166d28, type: 2}
